{
  "agent_class": "JMcastClient",
  "rmcast_agent_class": "SimpleReliableMulticastAgent",
  "paxos_config_file": "/Users/longle/Dropbox/Workspace/PhD/DS-SMR/libmcad/src/main/java/ch/usi/dslab/bezerra/mcad/jmcast/paxos-2g3p.conf",
  "jmcast_config_file": "/Users/longle/Dropbox/Workspace/PhD/DS-SMR/libmcad/src/main/java/ch/usi/dslab/bezerra/mcad/jmcast/mcast-2g3p.conf",
  "group_number": 2,
  "replicas_per_paxos_group": 3,
  "replicas_per_group": 3,
  "group_members": [
    {
      "pid": 0,
      "group": 0,
      "host": "localhost",
      "port": 50000,
      "rmcast_address": "localhost",
      "rmcast_port": 56000
    },
    {
      "pid": 1,
      "group": 0,
      "host": "localhost",
      "port": 50001,
      "rmcast_address": "localhost",
      "rmcast_port": 56001
    },
    {
      "pid": 2,
      "group": 0,
      "host": "localhost",
      "port": 50002,
      "rmcast_address": "localhost",
      "rmcast_port": 56002
    },
    {
      "pid": 3,
      "group": 1,
      "host": "localhost",
      "port": 50003,
      "rmcast_address": "localhost",
      "rmcast_port": 56003
    },
    {
      "pid": 4,
      "group": 1,
      "host": "localhost",
      "port": 50004,
      "rmcast_address": "localhost",
      "rmcast_port": 56004
    },
    {
      "pid": 5,
      "group": 1,
      "host": "localhost",
      "port": 50005,
      "rmcast_address": "localhost",
      "rmcast_port": 56005
    }
  ],
  "paxos_groups": [
    {
      "group_id": 0,
      "group_members": [
        {
          "pid": 0,
          "host": "localhost",
          "port": 57000
        },
        {
          "pid": 1,
          "host": "localhost",
          "port": 57001
        },
        {
          "pid": 2,
          "host": "localhost",
          "port": 57002
        }
      ]
    },
    {
      "group_id": 1,
      "group_members": [
        {
          "pid": 0,
          "host": "localhost",
          "port": 57003
        },
        {
          "pid": 1,
          "host": "localhost",
          "port": 57004
        },
        {
          "pid": 2,
          "host": "localhost",
          "port": 57005
        }
      ]
    }
  ]
}