{
  "agent_class" : "RidgeMulticastAgent" ,
  "rmcast_agent_class" : "SimpleReliableMulticastAgent",
  "batch_size_threshold_bytes" : 0 ,
  "batch_time_threshold_ms"    : 0 ,
  "delta_null_messages_ms"     : 1 ,
  
  "deliver_conservative"       : true  ,
  "deliver_optimistic_uniform" : false ,
  "deliver_optimistic_fast"    : false ,
  
  "latency_estimation_sample"  : 5 ,
  
  "groups" :
  [
    {
      "group_id" : 1
    } ,
    {
      "group_id" : 2
    }
  ] ,
  
  "ensembles" :
  [
    {
      "ensemble_id" : 0 ,
      "learner_broadcast_mode" : "DYNAMIC",
      "destination_groups" : [1]
    } ,
    {
      "ensemble_id" : 1 ,
      "learner_broadcast_mode" : "DYNAMIC",
      "destination_groups" : [2]
    } ,
    {
      "ensemble_id" : 2 ,
      "learner_broadcast_mode" : "DYNAMIC",
      "destination_groups" : [1, 2]
    }
  ] ,
  
  "ensemble_processes" :  
  [
    {
      "role" : "coordinator",
      "pid"  : 0,
      "ensemble" : 0,
      "host" : "localhost",
      "port" : 50000
    },
    {
      "role" : "acceptor",
      "pid"  : 1,
      "ensemble" : 0,
      "host" : "localhost",
      "port" : 50001
    },
    {
      "role" : "acceptor",
      "pid"  : 2,
      "ensemble" : 0,
      "host" : "localhost",
      "port" : 50002
    },
    {
      "role" : "coordinator",
      "pid"  : 3,
      "ensemble" : 1,
      "host" : "localhost",
      "port" : 50003
    },
    {
      "role" : "acceptor",
      "pid"  : 4,
      "ensemble" : 1,
      "host" : "localhost",
      "port" : 50004
    },
    {
      "role" : "acceptor",
      "pid"  : 5,
      "ensemble" : 1,
      "host" : "localhost",
      "port" : 50005
    },
    {
      "role" : "coordinator",
      "pid"  : 6,
      "ensemble" : 2,
      "host" : "localhost",
      "port" : 50006
    },
    {
      "role" : "acceptor",
      "pid"  : 7,
      "ensemble" : 2,
      "host" : "localhost",
      "port" : 50007
    },
    {
      "role" : "acceptor",
      "pid"  : 8,
      "ensemble" : 2,
      "host" : "localhost",
      "port" : 50008
    }
  ],
  
  "acceptor_sequences" :
  [
    {
      "id" : 0,
      "ensemble_id" : 0,
      "coordinator_writes" : true,
      "acceptors" : [0, 1]
    },
    {
      "id" : 1,
      "ensemble_id" : 1,
      "coordinator_writes" : true,
      "acceptors" : [3, 4]
    },
    {
      "id" : 2,
      "ensemble_id" : 2,
      "coordinator_writes" : true,
      "acceptors" : [6, 7]
    }
  ],
  
  "group_members" :
  [
    {
      "pid"   : 9,
      "group" : 1,
      "host"  : "localhost",
      "port"  : 50009,
      "rmcast_address" : "localhost" ,
      "rmcast_port"    : 50509
    },
    {
      "pid"   : 10,
      "group" : 2,
      "host"  : "localhost",
      "port"  : 50010,
      "rmcast_address" : "localhost" ,
      "rmcast_port"    : 50510
    }
  ]
  
}